{
  "site_config": {
    "name": "Technical Documentation",
    "brand": "capidocs",
    "brand_icon": "fas fa-file-alt",
    "use_logos": true,
    "license": {
      "text": "This project is open source and available under the GNU GPL v3.",
      "link": "LICENSE"
    },
    "logos": {
      "navbar_light": "logos/logo-light.svg",
      "navbar_dark": "logos/logo-dark.svg",
      "hero": "logos/logo-hero.svg",
      "icon": "logos/favicon.svg",
      "footer": "logos/logo-footer.svg"
    },
    "default_theme": "dark",
    "show_warning_on_pages": false,
    "exclude_warning_routes": ["home", "", "getting-started"],
    "warning_message": {
      "title": "Development Environment",
      "content": "This is a development environment for testing purposes. Production endpoints will be configured during deployment.",
      "type": "info"
    },
    "toc": {
      "enabled": true,
      "min_headings": 2,
      "exclude_pages": ["home"],
      "exclude_headings": {
        "texts": [
          "Development Environment",
          "Notice",
          "Warning",
          "Beta Feature"
        ],
        "selectors": [
          ".alert h4",
          ".warning-box h4",
          ".note-box h4",
          ".hero-title",
          ".hero-subtitle"
        ]
      }
    },
          "page_titles": {
        "base_title": "capidocs - Technical Documentation Portal",
      "separator": " | ",
      "routes": {
        "home": "Home",
        "getting-started": "Getting Started",
        "authentication": "Authentication",
        "endpoints": "API Endpoints",
        "webhooks": "Webhooks",
        "error-handling": "Error Handling"
      }
    },
    "navbar": {
      "links": [
        {
          "text": "Authentication",
          "href": "#authentication"
        },
        {
          "text": "API Endpoints",
          "href": "#endpoints"
        },
        {
          "text": "Webhooks",
          "href": "#webhooks"
        }
      ]
    }
  },
  "api": {
    "name": "capidocs API",
    "version": "2.1.0",
    "description": "Documentation platform API for technical content management. Provides content operations, user management, and real-time collaboration features.",
    "base_url": "https://api.capidocs.dev/v2"
  },
  "navigation": [
    {
      "id": "home",
      "title": "Home",
      "icon": "fas fa-home",
      "type": "page"
    },
    {
      "id": "getting-started",
      "title": "Getting Started",
      "icon": "fas fa-play-circle",
      "type": "page"
    },
    {
      "id": "authentication",
      "title": "Authentication",
      "icon": "fas fa-key",
      "type": "page"
    },
    {
      "id": "endpoints",
      "title": "API Endpoints",
      "icon": "fas fa-code",
      "type": "page"
    }
  ],
  "sections": [
    {
      "title": "Core Endpoints",
      "icon": "fas fa-server",
      "endpoints": [
        {
          "id": "users-endpoint",
          "method": "GET",
          "path": "/users",
          "title": "User Management"
        },
        {
          "id": "data-endpoint",
          "method": "POST",
          "path": "/data",
          "title": "Data Operations"
        }
      ]
    },
    {
      "title": "Advanced Features",
      "icon": "fas fa-rocket",
      "pages": [
        {
          "id": "webhooks",
          "title": "Webhooks",
          "icon": "fas fa-webhook"
        },
        {
          "id": "error-handling",
          "title": "Error Handling",
          "icon": "fas fa-exclamation-triangle"
        }
      ]
    }
  ],
  "pages": {
    "home": {
      "template": "hero",
      "content": {
        "hero": {
          "title": "capidocs API",
          "subtitle": "Technical Documentation Platform & API",
          "stats": [
            {
              "number": "99.8%",
              "label": "Uptime"
            },
            {
              "number": "50ms",
              "label": "Avg Response"
            },
            {
              "number": "24/7",
              "label": "Support"
            }
          ],
          "buttons": [
            {
              "text": "Start Building",
              "href": "#getting-started",
              "type": "primary",
              "icon": "fas fa-rocket"
            },
            {
              "text": "View Endpoints",
              "href": "#endpoints",
              "type": "outline",
              "icon": "fas fa-list"
            }
          ]
        },
        "features": {
          "title": "Core Features",
          "subtitle": "Everything you need for technical documentation",
          "items": [
            {
              "icon": "fas fa-file-alt",
              "title": "Content Management",
              "description": "Create, edit, and organize technical documentation with version control.",
              "link": "#users-endpoint"
            },
            {
              "icon": "fas fa-users",
              "title": "Team Collaboration",
              "description": "Multi-user editing with permissions, comments, and review workflows.",
              "link": "#data-endpoint"
            },
            {
              "icon": "fas fa-lock",
              "title": "Secure Access",
              "description": "Role-based access control with API keys and authentication tokens.",
              "link": "#authentication"
            },
            {
              "icon": "fas fa-sync-alt",
              "title": "Real-time Sync",
              "description": "Live updates and notifications for document changes and comments.",
              "link": "#webhooks"
            },
            {
              "icon": "fas fa-search",
              "title": "Advanced Search",
              "description": "Full-text search across all documentation with filtering and faceting.",
              "link": "#endpoints"
            },
            {
              "icon": "fas fa-code",
              "title": "Developer Friendly",
              "description": "API-first design with comprehensive REST endpoints and SDKs.",
              "link": "#authentication"
            }
          ]
        },
        "steps": {
          "title": "Quick Integration",
          "subtitle": "Get started in three simple steps",
          "items": [
            {
              "number": 1,
              "title": "Get API Key",
              "description": "Sign up and obtain your API credentials from the developer dashboard.",
              "link": "#authentication"
            },
            {
              "number": 2,
              "title": "Make First Call",
              "description": "Test your integration with our sandbox environment and sample code.",
              "link": "#getting-started"
            },
            {
              "number": 3,
              "title": "Go Live",
              "description": "Deploy to production with confidence using our monitoring tools.",
              "link": "#endpoints"
            }
          ]
        },
        "quick_start": {
          "title": "Quick Start",
          "subtitle": "Try the API with this example request",
          "code": {
            "language": "curl",
            "title": "Get Documents",
            "content": "curl -X GET https://api.capidocs.dev/v2/documents \\\n  -H \"Authorization: Bearer YOUR_API_KEY\" \\\n  -H \"Content-Type: application/json\""
          },
          "response": {
            "language": "json",
            "title": "Success Response",
            "content": "{\n  \"success\": true,\n  \"data\": [\n    {\n      \"id\": \"doc_12345\",\n      \"title\": \"API Documentation Guide\",\n      \"slug\": \"api-documentation-guide\",\n      \"status\": \"published\",\n      \"created_at\": \"2024-01-15T10:30:00Z\"\n    }\n  ],\n  \"pagination\": {\n    \"page\": 1,\n    \"total\": 42\n  }\n}"
          },
          "error_response": {
            "language": "json",
            "title": "Error Response",
            "content": "{\n  \"success\": false,\n  \"error\": {\n    \"code\": \"UNAUTHORIZED\",\n    \"message\": \"Invalid API key provided\"\n  }\n}"
          }
        }
      }
    },
    "getting-started": {
      "template": "content",
      "content": {
        "title": "Getting Started",
        "description": "Learn how to integrate our API into your application quickly and efficiently.",
        "sections": [
          {
            "title": "Overview",
            "content": "Our REST API provides a comprehensive set of endpoints for building modern web applications. The API follows RESTful principles and uses standard HTTP methods and status codes for consistent interaction patterns."
          },
          {
            "title": "Base URL",
            "content": "All API requests should be made to our base URL with the appropriate endpoint path:",
            "code": {
              "language": "text",
              "content": "https://api.capidocs.dev/v2"
            }
          },
          {
            "title": "Request Format",
            "content": "The API accepts and returns JSON data. Always include the Content-Type header in your requests:",
            "code": {
              "language": "http",
              "title": "Required Headers",
              "content": "Content-Type: application/json\nAuthorization: Bearer YOUR_API_KEY"
            }
          },
          {
            "title": "Response Format",
            "content": "All responses follow a consistent structure with success indicators and appropriate HTTP status codes:",
            "code": {
              "language": "json",
              "title": "Standard Response Format",
              "content": "{\n  \"success\": true,\n  \"data\": {},\n  \"message\": \"Operation completed successfully\",\n  \"timestamp\": \"2024-01-15T10:30:00Z\"\n}"
            }
          }
        ]
      }
    },
    "authentication": {
      "template": "content",
      "content": {
        "title": "Authentication",
        "description": "Secure your API requests using our authentication methods. We support multiple authentication schemes for different use cases.",
        "sections": [
          {
            "title": "API Key Authentication",
            "content": "The simplest authentication method using API keys. Include your API key in the Authorization header with Bearer scheme.",
            "code": {
              "language": "http",
              "title": "API Key Authentication",
              "content": "GET /v2/users HTTP/1.1\nHost: api.yourservice.com\nAuthorization: Bearer YOUR_API_KEY\nContent-Type: application/json"
            }
          },
          {
            "title": "OAuth 2.0",
            "content": "For applications that need to access user data on behalf of users, we support OAuth 2.0 with authorization code flow.",
            "list": [
              "Redirect users to our authorization endpoint",
              "Receive authorization code after user consent",
              "Exchange code for access token",
              "Use access token for API requests"
            ]
          },
          {
            "title": "JWT Tokens",
            "content": "JSON Web Tokens provide a stateless authentication method ideal for microservices and distributed systems.",
            "note": "JWT tokens expire after 24 hours. Implement token refresh logic in your application."
          },
          {
            "title": "Rate Limiting",
            "content": "API requests are rate limited to ensure fair usage and system stability:",
            "table": {
              "headers": ["Plan", "Requests/Hour", "Burst Limit"],
              "rows": [
                ["Free", "1,000", "100/min"],
                ["Professional", "10,000", "500/min"],
                ["Enterprise", "100,000", "2,000/min"]
              ]
            }
          }
        ]
      }
    },
    "endpoints": {
      "template": "content",
      "content": {
        "title": "API Endpoints",
        "description": "Complete reference for all available API endpoints with request/response examples.",
        "sections": [
          {
            "title": "User Management",
            "content": "Endpoints for managing user accounts, profiles, and authentication.",
            "table": {
              "headers": ["Method", "Endpoint", "Description"],
              "rows": [
                ["GET", "/users", "List all users"],
                ["GET", "/users/{id}", "Get user by ID"],
                ["POST", "/users", "Create new user"],
                ["PUT", "/users/{id}", "Update user"],
                ["DELETE", "/users/{id}", "Delete user"]
              ]
            }
          },
          {
            "title": "Data Operations",
            "content": "CRUD operations for your application data with advanced querying capabilities.",
            "table": {
              "headers": ["Method", "Endpoint", "Description"],
              "rows": [
                ["GET", "/data", "List data items"],
                ["POST", "/data", "Create data item"],
                ["PUT", "/data/{id}", "Update data item"],
                ["DELETE", "/data/{id}", "Delete data item"]
              ]
            }
          }
        ]
      }
    },
    "webhooks": {
      "template": "content",
      "content": {
        "title": "Webhooks",
        "description": "Configure real-time notifications for events in your application using webhooks.",
        "sections": [
          {
            "title": "Webhook Events",
            "content": "Available webhook events that you can subscribe to:",
            "list": [
              "user.created - New user registration",
              "user.updated - User profile changes",
              "data.created - New data item created",
              "data.updated - Data item modified",
              "system.error - System error occurred"
            ]
          },
          {
            "title": "Webhook Configuration",
            "content": "Configure webhook endpoints in your developer dashboard or via API:",
            "code": {
              "language": "json",
              "title": "Webhook Configuration",
              "content": "{\n  \"url\": \"https://your-app.com/webhooks\",\n  \"events\": [\"user.created\", \"data.updated\"],\n  \"secret\": \"your_webhook_secret\"\n}"
            }
          },
          {
            "title": "Webhook Payload",
            "content": "Example webhook payload structure:",
            "code": {
              "language": "json",
              "title": "Webhook Payload",
              "content": "{\n  \"event\": \"user.created\",\n  \"timestamp\": \"2024-01-15T10:30:00Z\",\n  \"data\": {\n    \"id\": \"usr_12345\",\n    \"name\": \"John Doe\",\n    \"email\": \"john@example.com\"\n  }\n}"
            }
          }
        ]
      }
    },
    "error-handling": {
      "template": "content",
      "content": {
        "title": "Error Handling",
        "description": "Understanding API error responses and how to handle them in your application.",
        "sections": [
          {
            "title": "HTTP Status Codes",
            "content": "Standard HTTP status codes used by the API:",
            "table": {
              "headers": ["Status Code", "Meaning", "Description"],
              "rows": [
                ["200", "OK", "Request successful"],
                ["201", "Created", "Resource created successfully"],
                ["400", "Bad Request", "Invalid request parameters"],
                ["401", "Unauthorized", "Authentication required"],
                ["403", "Forbidden", "Access denied"],
                ["404", "Not Found", "Resource not found"],
                ["429", "Too Many Requests", "Rate limit exceeded"],
                ["500", "Internal Server Error", "Server error occurred"]
              ]
            }
          },
          {
            "title": "Error Response Format",
            "content": "All error responses follow a consistent structure:",
            "code": {
              "language": "json",
              "title": "Error Response",
              "content": "{\n  \"success\": false,\n  \"error\": {\n    \"code\": \"VALIDATION_ERROR\",\n    \"message\": \"Invalid email format\",\n    \"details\": {\n      \"field\": \"email\",\n      \"value\": \"invalid-email\"\n    }\n  },\n  \"timestamp\": \"2024-01-15T10:30:00Z\"\n}"
            }
          },
          {
            "title": "Common Error Codes",
            "content": "Application-specific error codes you may encounter:",
            "table": {
              "headers": ["Error Code", "Description", "Resolution"],
              "rows": [
                ["INVALID_API_KEY", "API key is invalid or expired", "Check your API key"],
                ["VALIDATION_ERROR", "Request data validation failed", "Fix request parameters"],
                ["RESOURCE_NOT_FOUND", "Requested resource doesn't exist", "Verify resource ID"],
                ["RATE_LIMIT_EXCEEDED", "Too many requests", "Wait before retrying"]
              ]
            }
          }
        ]
      }
    }
  },
  "endpoints": {
    "users-endpoint": {
      "method": "GET",
      "path": "/users",
      "title": "List Users",
      "description": "Retrieve a list of users with optional filtering and pagination. Supports various query parameters for customizing the results.",
      "authentication": true,
      "request": {
        "headers": [
          {
            "name": "Authorization",
            "value": "Bearer YOUR_API_KEY",
            "required": true,
            "description": "API key for authentication"
          }
        ],
        "query_params": [
          {
            "name": "page",
            "type": "integer",
            "description": "Page number for pagination",
            "example": "1"
          },
          {
            "name": "limit",
            "type": "integer", 
            "description": "Number of items per page",
            "example": "20"
          },
          {
            "name": "search",
            "type": "string",
            "description": "Search term for filtering users",
            "example": "john"
          }
        ]
      },
      "responses": {
        "200": {
          "description": "Success",
          "examples": {
            "success": {
              "summary": "Users retrieved successfully",
              "value": {
                "success": true,
                "data": [
                  {
                    "id": "usr_12345",
                    "name": "John Doe",
                    "email": "john@example.com",
                    "created_at": "2024-01-15T10:30:00Z"
                  }
                ],
                "pagination": {
                  "page": 1,
                  "total": 150,
                  "has_more": true
                }
              }
            }
          }
        }
      },
      "code_examples": [
        {
          "id": "users-curl",
          "tech": "curl",
          "name": "cURL",
          "language": "bash",
          "title": "Get Users with cURL",
          "description": "Retrieve users using cURL command",
          "code": "curl -X GET 'https://api.capidocs.dev/v2/documents?page=1&limit=20' \\\n  -H 'Authorization: Bearer YOUR_API_KEY' \\\n  -H 'Content-Type: application/json'"
        },
        {
          "id": "users-javascript",
          "tech": "javascript",
          "name": "JavaScript",
          "language": "javascript",
          "title": "Fetch Users with JavaScript",
          "description": "Get users using JavaScript fetch API",
          "code": "const response = await fetch('https://api.capidocs.dev/v2/documents?page=1&limit=20', {\n  method: 'GET',\n  headers: {\n    'Authorization': 'Bearer YOUR_API_KEY',\n    'Content-Type': 'application/json'\n  }\n});\n\nconst data = await response.json();\nif (data.success) {\n  console.log('Documents:', data.data);\n  console.log('Total:', data.pagination.total);\n} else {\n  console.error('Error:', data.error.message);\n}"
        },
        {
          "id": "users-python",
          "tech": "python",
          "name": "Python",
          "language": "python",
          "title": "Get Users with Python",
          "description": "Retrieve users using Python requests",
          "code": "import requests\n\nurl = 'https://api.capidocs.dev/v2/documents'\nheaders = {\n    'Authorization': 'Bearer YOUR_API_KEY',\n    'Content-Type': 'application/json'\n}\n\nparams = {\n    'page': 1,\n    'limit': 20,\n    'search': 'api'\n}\n\nresponse = requests.get(url, headers=headers, params=params)\ndata = response.json()\n\nif data['success']:\n    print(f\"Found {len(data['data'])} documents\")\n    for doc in data['data']:\n        print(f\"- {doc['title']} ({doc['slug']})\")\nelse:\n    print(f\"Error: {data['error']['message']}\")"
        }
      ]
    },
    "data-endpoint": {
      "method": "POST",
      "path": "/data",
      "title": "Create Data Item",
      "description": "Create a new data item in the system. Supports various data types and custom metadata.",
      "authentication": true,
      "request": {
        "headers": [
          {
            "name": "Authorization",
            "value": "Bearer YOUR_API_KEY",
            "required": true,
            "description": "API key for authentication"
          }
        ],
        "body": {
          "type": "json",
          "schema": {
            "type": "object",
            "properties": {
              "title": {
                "type": "string",
                "description": "Title of the data item",
                "example": "Sample Data Item"
              },
              "content": {
                "type": "string",
                "description": "Content or description",
                "example": "This is sample content for the data item"
              },
              "category": {
                "type": "string",
                "description": "Category classification",
                "example": "general"
              },
              "metadata": {
                "type": "object",
                "description": "Additional metadata",
                "example": {
                  "priority": "high",
                  "tags": ["api", "example"]
                }
              }
            },
            "required": ["title", "content"]
          }
        }
      },
      "responses": {
        "201": {
          "description": "Created",
          "examples": {
            "success": {
              "summary": "Data item created successfully",
              "value": {
                "success": true,
                "data": {
                  "id": "data_67890",
                  "title": "Sample Data Item",
                  "content": "This is sample content for the data item",
                  "category": "general",
                  "created_at": "2024-01-15T10:30:00Z"
                },
                "message": "Data item created successfully"
              }
            },
            "error": {
              "summary": "Validation error",
              "value": {
                "success": false,
                "error": {
                  "code": "VALIDATION_ERROR",
                  "message": "Title is required"
                }
              }
            }
          }
        }
      },
      "code_examples": [
        {
          "id": "data-curl",
          "tech": "curl",
          "name": "cURL",
          "language": "bash",
          "title": "Create Data with cURL",
          "description": "Create a new data item using cURL",
          "code": "curl -X POST https://api.capidocs.dev/v2/documents \\\n  -H 'Authorization: Bearer YOUR_API_KEY' \\\n  -H 'Content-Type: application/json' \\\n  -d '{\n    \"title\": \"Getting Started Guide\",\n    \"content\": \"This guide helps you get started with capidocs\",\n    \"category\": \"guides\",\n    \"metadata\": {\n      \"priority\": \"high\",\n      \"tags\": [\"guide\", \"getting-started\"]\n    }\n  }'"
        },
        {
          "id": "data-javascript",
          "tech": "javascript", 
          "name": "JavaScript",
          "language": "javascript",
          "title": "Create Data with JavaScript",
          "description": "Create data item using JavaScript",
          "code": "const payload = {\n  title: 'Getting Started Guide',\n  content: 'This guide helps you get started with capidocs',\n  category: 'guides',\n  metadata: {\n    priority: 'high',\n    tags: ['guide', 'getting-started']\n  }\n};\n\nconst response = await fetch('https://api.capidocs.dev/v2/documents', {\n  method: 'POST',\n  headers: {\n    'Authorization': 'Bearer YOUR_API_KEY',\n    'Content-Type': 'application/json'\n  },\n  body: JSON.stringify(payload)\n});\n\nconst data = await response.json();\nif (data.success) {\n  console.log('Created document:', data.data.id);\n} else {\n  console.error('Error:', data.error.message);\n}"
        }
      ]
    }
  },
  "theme": {
    "colors": {
      "primary": "#000000",
      "secondary": "#333333", 
      "success": "#4a4a4a",
      "warning": "#666666",
      "error": "#000000",
      "info": "#000000"
    }
  },
  "features": {
    "syntax_highlighting": true,
    "code_copy": true,
    "dark_mode": true,
    "search": false,
    "mobile_responsive": true
  }
} 